<svg width="24" height="24" viewBox="0 0 24 24" fill="none" xmlns="http://www.w3.org/2000/svg">
  <g filter="url(#filter0_d_389_2599)">
    <path d="M19 22H5C3.89543 22 3 21.1046 3 20V6C3 4.89543 3.89543 4 5 4H7V2H9V4H15V2H17V4H19C20.1046 4 21 4.89543 21 6V20C21 21.1046 20.1046 22 19 22ZM5 10V20H19V10H5ZM5 6V8H19V6H5ZM17 18H15V16H17V18ZM13 18H11V16H13V18ZM9 18H7V16H9V18ZM17 14H15V12H17V14ZM13 14H11V12H13V14ZM9 14H7V12H9V14Z" fill="#343A40" />
  </g>
  <defs>
    <filter id="filter0_d_389_2599" x="-9" y="-6" width="42" height="44" filterUnits="userSpaceOnUse" color-interpolation-filters="sRGB">
      <feFlood flood-opacity="0" result="BackgroundImageFix" />
      <feColorMatrix in="SourceAlpha" type="matrix" values="0 0 0 0 0 0 0 0 0 0 0 0 0 0 0 0 0 0 127 0" result="hardAlpha" />
      <feOffset dy="4" />
      <feGaussianBlur stdDeviation="6" />
      <feComposite in2="hardAlpha" operator="out" />
      <feColorMatrix type="matrix" values="0 0 0 0 0 0 0 0 0 0 0 0 0 0 0 0 0 0 0.12 0" />
      <feBlend mode="normal" in2="BackgroundImageFix" result="effect1_dropShadow_389_2599" />
      <feBlend mode="normal" in="SourceGraphic" in2="effect1_dropShadow_389_2599" result="shape" />
    </filter>
  </defs>
</svg>
