<svg version="1.0" xmlns="http://www.w3.org/2000/svg"
 width="104.000000pt" height="126.000000pt" viewBox="0 0 104.000000 126.000000"
 preserveAspectRatio="xMidYMid meet">

<g transform="translate(0.000000,126.000000) scale(0.100000,-0.100000)"
fill="#000000" stroke="none">
<path d="M437 950 c-142 -43 -184 -245 -73 -349 l26 -24 -38 -17 c-95 -44
-184 -165 -198 -272 -6 -40 -4 -49 11 -54 21 -8 31 6 39 58 16 98 102 201 193
232 54 19 150 21 203 5 54 -16 130 -77 163 -130 15 -26 34 -74 40 -108 10 -53
15 -61 32 -59 42 6 11 139 -53 223 -31 42 -111 102 -156 118 -6 2 1 14 16 26
69 56 86 163 40 252 -45 87 -148 128 -245 99z m143 -61 c76 -43 104 -150 57
-219 -88 -132 -287 -73 -287 85 0 121 124 193 230 134z"/>
</g>
</svg>
